Project 2
…
final_result %>% 
  collect_predictions() %>%
  bind_cols(df_test)

## New names:
## * PH -> PH...4
## * PH -> PH...31

## # A tibble: 533 x 38
##    id    .pred  .row PH...4 .config Brand.Code Carb.Volume Fill.Ounces PC.Volume
##    <chr> <dbl> <int>  <dbl> <chr>   <chr>            <dbl>       <dbl>     <dbl>
##  1 trai  8.57     1   8.26 Prepro A                 5.49        24.3     0.111
##  2 trai  8.56     8   8.4  Prepro B                 5.27        23.9     0.334
##  3 trai  8.59    12   8.44 Prepro B                 5.37        24.1     0.261
##  4 trai  8.46    18   8.42 Prepro B                 5.36        24.0     0.278
##  5 trai  8.43    21   8.44 Prepro B                 5.39        24.1     0.212
##  6 trai  8.46    25   8.38 Prepro B                 5.36        24.1     0.155
##  7 trai  8.47    30   8.28 Prepro C                 5.27        24.0     0.311
##  8 trai  8.52    34   8.42 Prepro D                 5.49        24.1     0.203
##  9 trai  8.49    37   8.4  Prepro A                 5.43        24.1     0.239
## 10 trai  8.50    38   8.5  Prepro A                 5.44        24.2     0.251
## #  with 523 more rows, and 29 more variables: Carb.Pressure <dbl>,
## #   Carb.Temp <dbl>, PSC <dbl>, PSC.Fill <dbl>, PSC.CO2 <dbl>, Mnf.Flow <dbl>,
## #   Carb.Pressure1 <dbl>, Fill.Pressure <dbl>, Hyd.Pressure1 <dbl>,
## #   Hyd.Pressure2 <dbl>, Hyd.Pressure3 <dbl>, Hyd.Pressure4 <dbl>,
## #   Filler.Level <dbl>, Filler.Speed <dbl>, Temperature <dbl>,
## #   Usage.cont <dbl>, Carb.Flow <dbl>, Density <dbl>, MFR <dbl>, Balling <dbl>,
## #   Pressure.Vacuum <dbl>, PH...31 <dbl>, Oxygen.Filler <dbl>,
## #   Bowl.Setpoint <dbl>, Pressure.Setpoint <dbl>, Air.Pressurer <dbl>,
## #   Alch.Rel <dbl>, Carb.Rel <dbl>, Balling.Lvl <dbl>
…
