Multiple linear regression
…
Before you draw conclusions about the trend, compare the number of observations in the data frame with the approximate number of points on the scatterplot. Is anything awry?

evals %>% select(score, bty_avg) %>% filter(score == 4) 

## # A tibble: 24 x 2
##    score bty_avg
##    <dbl>   <dbl>
##  1     4    5.5 
##  2     4    4.83
##  3     4    4.83
##  4     4    4.33
##  5     4    4.33
##  6     4    4.33
##  7     4    4.33
##  8     4    6.5 
##  9     4    6.5 
## 10     4    2.33
## #  with 14 more rows
…
