Introduction to linear regression
…
Here, we are literally adding a layer on top of our plot. geom_smooth creates the line by fitting a linear model. It can also show us the standard error se associated with our line, but well suppress that for now.

This line can be used to predict \(y\) at any value of \(x\). When predictions are made for values of \(x\) that are beyond the range of the observed data, it is referred to as extrapolation and is not usually recommended. However, predictions made within the range of the data are more reliable. Theyre also used to compute the residuals.

Exercise 6

If someone saw the least squares regression line and not the actual data, how would they predict a countrys personal freedom school for one with a 6.7 rating for pf_expression_control? Is this an overestimate or an underestimate, and by how much? In other words, what is the residual for this prediction? geom_rug(sides=rt)

lmodel = lm(pf_score ~ pf_expression_control, data=hfi)
data = summary(lmodel)
hfi$yhat = data$coefficients[2] * hfi$pf_expression_control + data$coefficients[1]
hfi$residual <- hfi$yhat - hfi$pf_score
hfi %>% select(pf_expression_control,pf_score, yhat, residual) %>% filter(pf_expression_control > 6.6 & pf_expression_control < 6.8)

## # A tibble: 34 x 4
##    pf_expression_control pf_score  yhat residual
##                    <dbl>    <dbl> <dbl>    <dbl>
##  1                  6.75     7.43  7.93   0.503 
##  2                  6.75     8.22  7.93  -0.282 
##  3                  6.75     8.77  7.93  -0.833 
##  4                  6.75     7.87  7.93   0.0621
##  5                  6.75     7.39  7.93   0.539 
##  6                  6.75     7.25  7.93   0.679 
##  7                  6.75     7.79  7.93   0.146 
##  8                  6.75     8.27  7.93  -0.331 
##  9                  6.75     7.19  7.93   0.740 
## 10                  6.75     7.75  7.93   0.184 
## #  with 24 more rows
…
